<svg width="364" height="663" viewBox="0 0 364 663" fill="none" xmlns="http://www.w3.org/2000/svg">
<path d="M287.48 325.288C290.985 327.72 295.804 326.861 298.245 323.369L358.648 236.958C361.089 233.467 360.227 228.665 356.722 226.232L37.0586 4.40355C33.5532 1.97103 28.7341 2.83084 26.2933 6.3226L-266.581 425.3C-269.022 428.792 -268.16 433.594 -264.655 436.026L-222.579 465.225C-219.073 467.657 -214.254 466.797 -211.813 463.306C-209.373 459.814 -210.234 455.012 -213.739 452.579L-249.47 427.785L34.565 21.4523L188.324 128.153L86.0341 274.486C83.5933 277.978 84.4548 282.78 87.9601 285.212L234.828 387.131L97.1878 584.035L45.6591 548.277C42.1538 545.844 37.3347 546.704 34.8938 550.196L-0.371252 600.645L-178.9 476.756C-182.405 474.324 -187.224 475.183 -189.665 478.675C-192.106 482.167 -191.245 486.969 -187.739 489.401L-2.86485 617.694C-1.21666 618.838 0.877612 619.302 2.8572 618.967L100.416 602.357C102.431 602.013 104.29 600.837 105.459 599.165L274.679 357.084C280.197 348.69 268.221 340.013 261.988 348.277L243.667 374.485L103.144 276.97L201.015 136.959L341.537 234.474L285.554 314.562C283.113 318.054 283.975 322.856 287.48 325.288ZM43.1641 565.326L79.2025 590.334L18.4525 600.678L43.1641 565.326Z" fill="#FFCE4B" fill-opacity="0.05"/>
<path d="M239.103 206.202C239.1 206.195 236.122 204.141 236.118 204.135C233.486 202.313 229.996 202.297 227.348 204.098L151.977 255.314C143.716 260.926 152.43 273.658 160.691 268.045L175.059 258.281L209.111 281.911L204.862 298.67C202.459 308.138 217.409 312.097 219.856 302.444L242.18 214.413C242.969 211.304 241.743 208.034 239.103 206.202ZM188.733 248.99L223.441 225.404L213.161 265.942L188.733 248.99Z" fill="#FFCE4B" fill-opacity="0.05"/>
<path d="M254.414 272.283C257.92 274.715 262.739 273.855 265.18 270.364L269.494 264.191L275.395 268.286C278.9 270.718 283.72 269.859 286.16 266.367C288.601 262.875 287.74 258.073 284.234 255.641L278.334 251.546L282.443 245.667C284.884 242.175 284.023 237.373 280.517 234.941C277.012 232.508 272.193 233.368 269.752 236.86L265.642 242.739L259.447 238.44C255.942 236.007 251.123 236.867 248.682 240.359C246.241 243.851 247.103 248.652 250.608 251.085L256.803 255.384L252.488 261.557C250.048 265.048 250.91 269.851 254.414 272.283Z" fill="#FFCE4B" fill-opacity="0.05"/>
<path d="M-67.6885 243.645L166.347 406.053C169.852 408.485 174.672 407.625 177.112 404.133C179.553 400.642 178.692 395.84 175.186 393.407L-58.8493 231C-67.3146 225.458 -75.9514 237.503 -67.6885 243.645Z" fill="#FFCE4B" fill-opacity="0.05"/>
<path d="M-90.7823 276.684L143.253 439.092C146.759 441.524 151.578 440.664 154.019 437.172C156.459 433.681 155.598 428.879 152.092 426.446L-81.943 264.039C-90.4084 258.497 -99.0452 270.542 -90.7823 276.684Z" fill="#FFCE4B" fill-opacity="0.05"/>
<path d="M40.7367 88.5338L122.957 145.59C126.462 148.022 131.281 147.162 133.722 143.671C136.163 140.179 135.301 135.377 131.796 132.944L49.576 75.8886C41.0391 70.3325 32.5132 82.4378 40.7367 88.5338Z" fill="#FFCE4B" fill-opacity="0.05"/>
<path d="M17.6394 121.572L68.5538 156.904C77.1032 162.464 85.6101 150.348 77.393 144.259L26.4787 108.927C17.9295 103.369 9.42319 115.484 17.6394 121.572Z" fill="#FFCE4B" fill-opacity="0.05"/>
<path d="M-113.878 309.72L120.158 472.127C123.663 474.56 128.482 473.7 130.923 470.208C133.364 466.716 132.502 461.915 128.997 459.482L-105.039 297.074C-113.504 291.533 -122.141 303.577 -113.878 309.72Z" fill="#FFCE4B" fill-opacity="0.05"/>
<path d="M-136.972 342.76L97.0638 505.168C100.569 507.6 105.388 506.74 107.829 503.249C110.27 499.757 109.408 494.955 105.903 492.523L-128.132 330.115C-136.598 324.573 -145.235 336.618 -136.972 342.76Z" fill="#FFCE4B" fill-opacity="0.05"/>
<path d="M-183.158 408.83L-8.71431 529.884C-0.218184 535.432 8.37106 523.362 0.124949 517.239L-174.319 396.185C-182.815 390.637 -191.405 402.708 -183.158 408.83Z" fill="#FFCE4B" fill-opacity="0.05"/>
</svg>
