<svg width="393" height="453" viewBox="0 0 393 453" fill="none" xmlns="http://www.w3.org/2000/svg">
<path d="M329.404 267.044C369.814 211.216 371.807 136.306 334.422 78.4094C284.235 -1.91168 174.013 -23.8974 88.7168 29.3974C3.42116 82.6923 -25.1435 191.396 25.0431 271.717C60.6879 330.701 128.887 361.754 196.782 349.911L198.386 349.811L214.972 358.131C205.639 375.73 212.339 397.561 229.935 406.893C232.249 408.12 234.69 409.092 237.214 409.79C233.602 429.523 246.668 448.446 266.4 452.06C275.363 453.701 284.617 451.913 292.322 447.051L374.823 395.503C391.882 384.948 397.154 362.562 386.599 345.503C381.804 337.754 374.271 332.09 365.497 329.636C369.139 310.052 356.213 291.225 336.63 287.585C334.055 287.106 331.436 286.908 328.818 286.998L328.612 268.443L329.404 267.044ZM361.935 374.878L279.434 426.427C273.739 429.985 266.236 428.253 262.678 422.558C259.119 416.863 260.852 409.36 266.547 405.802L349.048 354.253C354.743 350.694 362.245 352.427 365.804 358.122C369.362 363.817 367.63 371.32 361.935 374.878ZM336.161 333.628L253.66 385.176C247.964 388.735 240.462 387.002 236.903 381.307C233.345 375.612 235.077 368.11 240.772 364.551L323.273 313.002C328.969 309.444 336.471 311.176 340.03 316.871C343.588 322.567 341.856 330.069 336.161 333.628ZM308.553 254.505L305.829 259.322C304.777 261.189 304.235 263.301 304.256 265.444L304.596 295.995L300.074 298.821L251.193 220.589L269.404 141.718L245.71 136.246L226.365 220.027C225.639 223.168 226.191 226.469 227.899 229.206L279.448 311.707L258.822 324.594L207.274 242.093C205.563 239.358 202.838 237.415 199.696 236.69L115.915 217.345L110.445 241.038L189.316 259.249L238.197 337.481L233.675 340.306L206.365 326.607C204.449 325.648 202.313 325.21 200.173 325.337L194.65 325.673C194.208 325.703 193.769 325.755 193.334 325.83C134.989 336.205 76.283 309.568 45.667 258.83C2.58849 189.885 27.6767 96.2143 101.603 50.0235C175.529 3.83266 270.717 22.3524 313.795 91.2974C345.973 141.059 344.174 205.501 309.271 253.39C309.014 253.75 308.773 254.122 308.553 254.505Z" fill="#1BA260" fill-opacity="0.03"/>
</svg>
