<svg width="13" height="14" viewBox="0 0 13 14" fill="none" xmlns="http://www.w3.org/2000/svg">
<path d="M12.6 5.96C12.8133 5.96 12.92 6.06667 12.92 6.28V7.496C12.92 7.70933 12.8133 7.816 12.6 7.816H7.608C7.52267 7.816 7.48 7.85867 7.48 7.944V12.904C7.48 13.1173 7.37333 13.224 7.16 13.224H5.912C5.69867 13.224 5.592 13.1173 5.592 12.904V7.944C5.592 7.85867 5.54933 7.816 5.464 7.816H0.472C0.258667 7.816 0.152 7.70933 0.152 7.496V6.28C0.152 6.06667 0.258667 5.96 0.472 5.96H5.464C5.54933 5.96 5.592 5.91733 5.592 5.832V0.743999C5.592 0.530666 5.69867 0.424 5.912 0.424H7.16C7.37333 0.424 7.48 0.530666 7.48 0.743999V5.832C7.48 5.91733 7.52267 5.96 7.608 5.96H12.6Z" fill="#29323C"/>
</svg>
