<svg width="160" height="200" viewBox="0 0 160 200" fill="none" xmlns="http://www.w3.org/2000/svg">
<g filter="url(#filter0_d)">
<path d="M5 57.5C5 26.2959 30.2959 1 61.5 1C92.7041 1 118 26.2959 118 57.5V104.5C118 135.704 92.7041 161 61.5 161C30.2959 161 5 135.704 5 104.5V57.5Z" fill="#249DEC"/>
<ellipse cx="121.306" cy="174.333" rx="7.92793" ry="8.88889" fill="#FFCE4B"/>
<ellipse cx="145.09" cy="140.445" rx="7.92793" ry="8.33333" fill="#FFCE4B"/>
<ellipse cx="143.108" cy="93.2216" rx="6.93694" ry="7.77778" fill="#FFCE4B"/>
<path d="M47.7148 114.477L65.8865 84.5858L117.676 83.3901L137.664 114.477L92.2354 188.608L47.7148 114.477Z" fill="white"/>
<path d="M92.2339 121.651L67.7021 84.5859H117.674L92.2339 121.651Z" fill="#FFCE4B"/>
<path d="M143.108 103.223C148.026 103.223 152.027 98.7363 152.027 93.2227C152.027 87.709 148.026 83.2227 143.108 83.2227C138.191 83.2227 134.189 87.709 134.189 93.2227C134.189 98.7363 138.191 103.223 143.108 103.223ZM143.108 87.2227C146.059 87.2227 148.46 89.9141 148.46 93.2227C148.46 96.5312 146.059 99.2227 143.108 99.2227C140.157 99.2227 137.757 96.5312 137.757 93.2227C137.757 89.9141 140.157 87.2227 143.108 87.2227Z" fill="#35414B"/>
<path d="M145.091 129.889C139.627 129.889 135.181 134.873 135.181 141C135.181 147.126 139.627 152.111 145.091 152.111C150.555 152.111 155 147.126 155 141C155 134.873 150.555 129.889 145.091 129.889ZM145.091 147.666C141.812 147.666 139.145 144.676 139.145 141C139.145 137.324 141.812 134.333 145.091 134.333C148.369 134.333 151.037 137.324 151.037 141C151.037 144.676 148.369 147.666 145.091 147.666Z" fill="#35414B"/>
<path d="M121.306 163.222C115.842 163.222 111.396 168.207 111.396 174.333C111.396 180.46 115.842 185.444 121.306 185.444C126.77 185.444 131.216 180.46 131.216 174.333C131.216 168.207 126.77 163.222 121.306 163.222ZM121.306 181C118.028 181 115.36 178.009 115.36 174.333C115.36 170.657 118.028 167.667 121.306 167.667C124.585 167.667 127.252 170.657 127.252 174.333C127.252 178.009 124.585 181 121.306 181Z" fill="#35414B"/>
<path d="M139.067 116.251C139.383 115.736 139.491 115.094 139.436 114.472C139.436 114.295 139.457 114.12 139.425 113.94C139.305 113.258 138.969 112.732 138.54 112.415L119.058 81.8547C119.029 81.8083 118.983 81.7898 118.951 81.7467C118.916 81.6988 118.9 81.6366 118.861 81.592C118.786 81.5053 118.694 81.4713 118.611 81.4037C118.52 81.3278 118.436 81.2484 118.335 81.1954C118.183 81.115 118.028 81.0829 117.868 81.0591C117.798 81.0485 117.736 81 117.665 81H66.7846C66.7143 81 66.6526 81.0482 66.5835 81.0587C66.4224 81.0823 66.2665 81.1147 66.1134 81.1959C66.0137 81.2486 65.9307 81.3274 65.8395 81.4025C65.7569 81.4704 65.6642 81.5047 65.5885 81.592C65.5498 81.6366 65.5337 81.6988 65.4986 81.7467C65.4666 81.7898 65.4212 81.8083 65.3916 81.8547L45.9085 112.417C45.4805 112.735 45.1448 113.26 45.0248 113.94C44.9932 114.12 45.0138 114.295 45.0138 114.472C44.9587 115.094 45.0664 115.736 45.3832 116.251L90.8123 190.113C90.816 190.118 90.8219 190.12 90.8255 190.126C90.8463 190.16 90.87 190.187 90.892 190.218C90.9248 190.265 90.9651 190.3 91.0009 190.344C91.1176 190.486 91.2424 190.607 91.3813 190.703C91.4149 190.727 91.4431 190.756 91.4778 190.777C91.49 190.784 91.4973 190.799 91.5097 190.806C91.5341 190.82 91.5602 190.814 91.5848 190.826C91.7896 190.929 92.0027 191 92.2249 191C92.447 191 92.6602 190.929 92.865 190.826C92.8896 190.814 92.9156 190.82 92.94 190.806C92.9525 190.799 92.9598 190.784 92.972 190.777C93.0067 190.756 93.0349 190.727 93.0685 190.703C93.2073 190.607 93.3322 190.486 93.4489 190.344C93.4847 190.3 93.525 190.265 93.5578 190.218C93.5798 190.187 93.6035 190.16 93.6243 190.126C93.6279 190.12 93.6338 190.118 93.6375 190.113L139.067 116.251ZM66.8135 87.0677L88.2193 119.261H70.6265L50.2375 113.069L66.8135 87.0677ZM134.212 113.069L113.823 119.261H96.2304L117.636 87.0677L134.212 113.069ZM111.275 124.043L92.2249 182.54L73.1744 124.043H111.275ZM92.2249 118.019L70.7901 85.7826H113.66L92.2249 118.019ZM69.1123 123.71L85.3926 173.698L51.3245 118.308L69.1123 123.71ZM115.338 123.71L133.125 118.308L99.0572 173.698L115.338 123.71Z" fill="#35414B"/>
</g>
<defs>
<filter id="filter0_d" x="0" y="0" width="160" height="200" filterUnits="userSpaceOnUse" color-interpolation-filters="sRGB">
<feFlood flood-opacity="0" result="BackgroundImageFix"/>
<feColorMatrix in="SourceAlpha" type="matrix" values="0 0 0 0 0 0 0 0 0 0 0 0 0 0 0 0 0 0 127 0"/>
<feOffset dy="4"/>
<feGaussianBlur stdDeviation="2.5"/>
<feColorMatrix type="matrix" values="0 0 0 0 0.429167 0 0 0 0 0.429167 0 0 0 0 0.429167 0 0 0 0.25 0"/>
<feBlend mode="normal" in2="BackgroundImageFix" result="effect1_dropShadow"/>
<feBlend mode="normal" in="SourceGraphic" in2="effect1_dropShadow" result="shape"/>
</filter>
</defs>
</svg>
