<svg width="18" height="18" viewBox="0 0 18 18" fill="none" xmlns="http://www.w3.org/2000/svg">
<path d="M0.5625 17.4377V1.40626V1.12501V0.5625H15.7501V17.4377H0.5625Z" fill="white"/>
<path d="M15.6997 8.72357C15.385 8.72357 15.1299 9.00583 15.1299 9.35396V16.7394H1.13956V1.26077H12.3788C12.6935 1.26077 12.9485 0.978509 12.9485 0.630385C12.9485 0.282261 12.6935 0 12.3788 0H0.569778C0.255124 0 0 0.282261 0 0.630385V17.3698C0 17.7179 0.255124 18.0002 0.569778 18.0002H15.6997C16.0143 18.0002 16.2695 17.7179 16.2695 17.3698V9.35396C16.2695 9.00583 16.0144 8.72357 15.6997 8.72357Z" fill="#35414B"/>
<path d="M17.8333 0.415083C17.6108 0.168931 17.25 0.168931 17.0275 0.415083L7.74715 10.6826L5.44142 8.13165C5.21889 7.8855 4.85815 7.8855 4.63562 8.13165C4.41313 8.37786 4.41313 8.77697 4.63562 9.02317L7.34425 12.0199C7.45551 12.143 7.60133 12.2045 7.74715 12.2045C7.89297 12.2045 8.03879 12.143 8.15005 12.0199L17.8333 1.3066C18.0558 1.0604 18.0558 0.661287 17.8333 0.415083Z" fill="#FFCE4B"/>
</svg>
