<svg width="160" height="200" viewBox="0 0 160 200" fill="none" xmlns="http://www.w3.org/2000/svg">
<g filter="url(#filter0_d)">
<path d="M5 57.5C5 26.2959 30.2959 1 61.5 1C92.7041 1 118 26.2959 118 57.5V104.5C118 135.704 92.7041 161 61.5 161C30.2959 161 5 135.704 5 104.5V57.5Z" fill="#249DEC"/>
<ellipse cx="96" cy="137.5" rx="47" ry="49.5" fill="white"/>
<path d="M137.5 115.5L134 113C134.5 112.167 135.6 110.5 136 110.5C136.4 110.5 140.5 106.167 142.5 104L146.5 102.5L151.5 104L153.5 108L152.5 112L143 121.5L141.5 121L137.5 115.5Z" fill="#FFCE4B"/>
<path d="M118.5 112H73L71.5 115V170.5H118.5V112Z" fill="#FFCE4B"/>
<path d="M93 156L97.5 146.5L98 145L124.5 120.5L134.5 113L140 118L142 122L105 156L96 158.5L93 156Z" fill="white"/>
<path d="M96.411 120.634H80.375V124.224H96.411V120.634Z" fill="#35414B"/>
<path d="M108.883 128.389H80.375V131.979H108.883V128.389Z" fill="#35414B"/>
<path d="M140.817 148.924C139.584 148.637 138.35 149.355 138.076 150.648C135.061 162.854 127.797 173.193 117.517 179.512C107.238 185.974 95.0395 187.841 83.3895 184.682C59.404 178.363 44.7385 152.658 50.7692 127.384C56.6627 103.115 79.6888 88.0366 102.852 92.6319L101.207 99.5248L118.888 94.3551L105.73 81L104.085 88.0365C78.4553 82.7232 52.9622 99.3812 46.5203 126.235C39.8044 153.95 55.9775 182.384 82.43 189.42C86.5418 190.569 90.6536 191 94.6283 191C103.4 191 112.172 188.559 119.984 183.676C131.36 176.64 139.447 165.295 142.736 151.796C142.873 150.648 142.051 149.211 140.817 148.924Z" fill="#35414B"/>
<path d="M153.015 103.545C150.137 100.099 145.203 99.8117 141.913 102.684L141.365 103.258L140.543 103.976L137.39 106.848L136.979 107.136L122.451 120.491L121.629 121.209V111.874C121.629 110.582 120.532 109.433 119.299 109.433H71.8759C70.6424 109.433 69.5459 110.582 69.5459 111.874V170.752C69.5459 172.044 70.6424 173.193 71.8759 173.193H119.299C120.532 173.193 121.629 172.044 121.629 170.752V143.036L126.974 138.154L129.989 135.425L134.375 131.404L137.39 128.676L138.898 127.24L147.122 119.773L150.548 116.757L152.056 115.321L152.33 115.034C155.619 112.305 155.894 106.992 153.015 103.545ZM117.106 168.454H74.343V114.459H117.106V125.66L107.511 134.42L103.674 137.867V135.856H80.3737V139.446H101.892L97.232 143.754H80.3737V147.344H95.1761L92.709 152.083L92.4349 152.514L88.7343 159.981L88.4601 160.412C88.3231 160.987 88.4602 161.705 88.8714 162.136C89.2826 162.566 89.8308 162.71 90.379 162.71H90.516L91.0643 162.566L106.963 156.535C107.237 156.391 107.374 156.248 107.511 156.248L117.243 147.488V168.454H117.106ZM99.8362 148.062C100.521 148.637 101.344 149.355 102.029 150.216C102.851 151.222 103.4 151.94 103.811 152.801C103.948 153.232 104.222 153.663 104.359 153.95L98.0543 156.391L95.5872 153.519L98.7396 147.344C99.1508 147.488 99.562 147.775 99.8362 148.062ZM139.858 122.07L134.923 126.522L127.385 133.415L124.37 136.143L121.629 138.728L117.106 142.893L107.1 152.083C106.963 151.796 106.826 151.365 106.552 151.078C106.004 150.073 105.319 149.068 104.359 147.919C104.222 147.632 103.948 147.488 103.811 147.201C103.126 146.483 102.44 145.765 101.755 145.19C101.481 144.903 101.207 144.76 100.933 144.616L101.618 143.898L101.892 143.611L111.623 134.707L116.969 129.825L117.517 129.394L119.436 127.671L121.629 125.66L127.248 120.491L128.345 119.485L129.03 118.767L134.375 113.885C138.35 116.039 139.995 119.342 140.68 121.065L139.858 122.07ZM141.776 120.347C140.954 118.337 139.309 115.321 135.472 113.167L136.431 112.305C140.406 114.459 142.05 117.906 142.599 119.629L141.776 120.347ZM150.274 112.736L148.904 113.885L148.355 114.459L148.081 114.746L146.436 116.183L145.751 116.757L144.243 118.193L143.695 118.624C143.01 116.613 141.228 113.598 137.528 111.3L137.665 111.156L137.802 111.013L140.269 108.715L141.776 107.279L143.284 105.843L143.695 105.556L143.969 105.269C145.888 103.545 148.904 103.689 150.548 105.7C152.33 107.854 152.193 111.013 150.274 112.736Z" fill="#35414B"/>
</g>
<defs>
<filter id="filter0_d" x="0" y="0" width="160" height="200" filterUnits="userSpaceOnUse" color-interpolation-filters="sRGB">
<feFlood flood-opacity="0" result="BackgroundImageFix"/>
<feColorMatrix in="SourceAlpha" type="matrix" values="0 0 0 0 0 0 0 0 0 0 0 0 0 0 0 0 0 0 127 0"/>
<feOffset dy="4"/>
<feGaussianBlur stdDeviation="2.5"/>
<feColorMatrix type="matrix" values="0 0 0 0 0.429167 0 0 0 0 0.429167 0 0 0 0 0.429167 0 0 0 0.25 0"/>
<feBlend mode="normal" in2="BackgroundImageFix" result="effect1_dropShadow"/>
<feBlend mode="normal" in="SourceGraphic" in2="effect1_dropShadow" result="shape"/>
</filter>
</defs>
</svg>
